<svg width="10" height="10" viewBox="0 0 10 10" fill="none" xmlns="http://www.w3.org/2000/svg">
<path d="M3.51901 8.74916L1.25084 6.48099L6.7368 0.995033L9.00497 3.2632L3.51901 8.74916ZM1.03882 6.88053L3.11947 8.96118L0 10L1.03882 6.88053ZM9.7026 2.56857L9.30918 2.96199L7.03801 0.690817L7.43143 0.297402C7.82772 -0.0991341 8.47037 -0.0991341 8.86667 0.297402L9.7026 1.13333C10.096 1.53095 10.096 2.17108 9.7026 2.56857Z" fill="#D4D4D4"/>
</svg>
